\relax 
\select@language{italian}
\@writefile{toc}{\select@language{italian}}
\@writefile{lof}{\select@language{italian}}
\@writefile{lot}{\select@language{italian}}
\select@language{italian}
\@writefile{toc}{\select@language{italian}}
\@writefile{lof}{\select@language{italian}}
\@writefile{lot}{\select@language{italian}}
\citation{dominici03}
\citation{Deb97}
\@writefile{toc}{\contentsline {chapter}{\numberline {1}Introduzione}{1}}
\@writefile{lof}{\addvspace {10\p@ }}
\@writefile{lot}{\addvspace {10\p@ }}
\newlabel{introduzione}{{1}{1}}
\@writefile{toc}{\contentsline {chapter}{\numberline {2}La teoria economica su ....}{3}}
\@writefile{lof}{\addvspace {10\p@ }}
\@writefile{lot}{\addvspace {10\p@ }}
\newlabel{cap:econtheory}{{2}{3}}
\@writefile{toc}{\contentsline {section}{\numberline {2.1}Il modello di...}{3}}
\newlabel{sec:mod1}{{2.1}{3}}
\@writefile{toc}{\contentsline {section}{\numberline {2.2}Critiche al modello di ....}{3}}
\newlabel{sec:crit}{{2.2}{3}}
\@writefile{toc}{\contentsline {chapter}{\numberline {3}Conclusioni}{5}}
\@writefile{lof}{\addvspace {10\p@ }}
\@writefile{lot}{\addvspace {10\p@ }}
\newlabel{cap:conclusioni}{{3}{5}}
\bibstyle{plain}
\bibdata{biblio}
\@writefile{toc}{\contentsline {chapter}{\numberline {A}Codice}{7}}
\@writefile{lof}{\addvspace {10\p@ }}
\@writefile{lot}{\addvspace {10\p@ }}
